D.5 Bio-Logic Jazz-Metal (and where to consume it) | Introduction to Data Analysis
…
option1 and option2: what the choice options where

response: which of the two options was chosen

Notice that there is no convenient column indicating which of the three critical conditions we are dealing with, so we extract that information from the data given in columns option1 and option2, while also discarding everything we will not need:78

data_BLJM_processed <- 
  data_BLJM_raw %>% 
  mutate(
    condition = str_c(str_sub(option2,1, 1), str_sub(option1,1, 1))
  ) %>% 
  select(submission_id, condition, response)
data_BLJM_processed

## # A tibble: 306 x 3
##    submission_id condition response 
##            <dbl> <chr>     <chr>    
##  1           379 BM        Beach    
##  2           379 LB        Logic    
##  3           379 JM        Metal    
##  4           378 JM        Metal    
##  5           378 LB        Logic    
##  6           378 BM        Beach    
##  7           377 BM        Mountains
##  8           377 LB        Biology  
##  9           377 JM        Jazz     
## 10           376 BM        Beach    
## # … with 296 more rows
…
