9.6 Probabilistic modeling with greta | Introduction to Data Analysis
…
# take 4 chains of 1000 samples
draws <- greta::mcmc(
  model = m, 
  n_samples = 1000,
  warmup = 1000,
  chains = 4
)

The resulting draws object is a special kind of object, an MCMC.list as defined in the coda package. This is not very important for us, however, we simply transform the samples to a tidy representation, using the function ggs from the ggmcmc package:

# cast results (type 'mcmc.list') into tidy tibble
tidy_draws = ggmcmc::ggs(draws)
tidy_draws

## # A tibble: 4,000 x 4
##    Iteration Chain Parameter value
##        <int> <int> <fct>     <dbl>
##  1         1     1 theta     0.343
##  2         2     1 theta     0.323
##  3         3     1 theta     0.352
##  4         4     1 theta     0.356
##  5         5     1 theta     0.356
##  6         6     1 theta     0.398
##  7         7     1 theta     0.398
##  8         8     1 theta     0.346
##  9         9     1 theta     0.405
## 10        10     1 theta     0.308
## # … with 3,990 more rows
…
