9.3 Approximating the posterior | Introduction to Data Analysis
…
To get the posterior samples in a tidy format we use a function from the tidybayes package:

tidy_samples <- tidybayes::tidy_draws(stan_fit_binomial) %>% select(theta)
tidy_samples

## # A tibble: 10,000 x 1
##    theta
##    <dbl>
##  1 0.317
##  2 0.371
##  3 0.356
##  4 0.361
##  5 0.374
##  6 0.381
##  7 0.374
##  8 0.355
##  9 0.340
## 10 0.341
## # … with 9,990 more rows
…
