6.1 Motivating example: Anscombe’s quartet | Introduction to Data Analysis
…
tidy_anscombe <- anscombe %>% as_tibble %>% 
  pivot_longer(
    ## we want to pivot every column
    everything(),
    ## use reg-exps to capture 1st and 2nd character
    names_pattern = "(.)(.)",      
    ## assign names to new cols, using 1st part of
    ##  what reg-exp captures as new column names
    names_to = c(".value", "grp")  
  ) %>% 
  mutate(grp = paste0("Group ", grp))
tidy_anscombe

## # A tibble: 44 x 3
##    grp         x     y
##    <chr>   <dbl> <dbl>
##  1 Group 1    10  8.04
##  2 Group 2    10  9.14
##  3 Group 3    10  7.46
##  4 Group 4     8  6.58
##  5 Group 1     8  6.95
##  6 Group 2     8  8.14
##  7 Group 3     8  6.77
##  8 Group 4     8  5.76
##  9 Group 1    13  7.58
## 10 Group 2    13  8.74
## # … with 34 more rows
…
