5.2 Central tendency and dispersion | Introduction to Data Analysis
…
We can then take a glimpse:

avocado_data

## # A tibble: 18,249 x 7
##    Date       average_price total_volume_sold small  medium large type        
##    <date>             <dbl>             <dbl> <dbl>   <dbl> <dbl> <chr>       
##  1 2015-12-27          1.33            64237. 1037.  54455.  48.2 conventional
##  2 2015-12-20          1.35            54877.  674.  44639.  58.3 conventional
##  3 2015-12-13          0.93           118220.  795. 109150. 130.  conventional
##  4 2015-12-06          1.08            78992. 1132   71976.  72.6 conventional
##  5 2015-11-29          1.28            51040.  941.  43838.  75.8 conventional
##  6 2015-11-22          1.26            55980. 1184.  48068.  43.6 conventional
##  7 2015-11-15          0.99            83454. 1369.  73673.  93.3 conventional
##  8 2015-11-08          0.98           109428.  704. 101815.  80   conventional
##  9 2015-11-01          1.02            99811. 1022.  87316.  85.3 conventional
## 10 2015-10-25          1.07            74339.  842.  64757. 113   conventional
## # … with 18,239 more rows
…
## <list_of<
##   tbl_df<
##     Date             : date
##     average_price    : double
##     total_volume_sold: double
##     small            : double
##     medium           : double
##     large            : double
##   >
## >[1]>
## [[1]]
## # A tibble: 9,126 x 6
##    Date       average_price total_volume_sold small  medium large
##    <date>             <dbl>             <dbl> <dbl>   <dbl> <dbl>
##  1 2015-12-27          1.33            64237. 1037.  54455.  48.2
##  2 2015-12-20          1.35            54877.  674.  44639.  58.3
##  3 2015-12-13          0.93           118220.  795. 109150. 130. 
##  4 2015-12-06          1.08            78992. 1132   71976.  72.6
##  5 2015-11-29          1.28            51040.  941.  43838.  75.8
##  6 2015-11-22          1.26            55980. 1184.  48068.  43.6
##  7 2015-11-15          0.99            83454. 1369.  73673.  93.3
##  8 2015-11-08          0.98           109428.  704. 101815.  80  
##  9 2015-11-01          1.02            99811. 1022.  87316.  85.3
## 10 2015-10-25          1.07            74339.  842.  64757. 113  
## # … with 9,116 more rows
…
