5.1 Counts and proportions | Introduction to Data Analysis
…
This can also be obtained simply by (although in a different output format!):

nrow(data_BLJM_processed)

## [1] 306

Counting can be helpful also when getting acquainted with a data set, or when checking whether the data is complete. For example, we can verify that every participant in the experiment contributed three data points like so:

data_BLJM_processed %>% 
  group_by(submission_id) %>% 
  summarise(nr_data_points = n())

## # A tibble: 102 x 2
##    submission_id nr_data_points
##            <dbl>          <int>
##  1           278              3
##  2           279              3
##  3           280              3
##  4           281              3
##  5           282              3
##  6           283              3
##  7           284              3
##  8           285              3
##  9           286              3
## 10           287              3
## # … with 92 more rows
…
