4 Models | Introduction to Data Analysis
…
## repeat experiment N-times
for (i in 1: n2) {
  k2[i] <- sum(sample(sample.space, size = X2, replace = TRUE, 
                     prob = c(theta2, 1 - theta2)))
}

## show results in a tibble
coin.flip2 <- tibble("coin" = c(replicate(n1,"coin1"), replicate(n2,"coin2")),
                     "n" = c(seq(from=1, to=n1, by=1), seq(from=1, to=n2, by=1)),
                     "k" = c(k1,k2),
                     "x" = c(replicate(n1,X1), replicate(n2,X2))
) %>% 
  print()

## # A tibble: 200 x 4
##    coin      n     k     x
##    <chr> <dbl> <dbl> <dbl>
##  1 coin1     1    15    30
##  2 coin1     2    12    30
##  3 coin1     3    17    30
##  4 coin1     4    15    30
##  5 coin1     5    14    30
##  6 coin1     6    15    30
##  7 coin1     7    13    30
##  8 coin1     8    16    30
##  9 coin1     9    14    30
## 10 coin1    10    14    30
## # … with 190 more rows
…
