4.1 Two categorical predictors | Introduction to Data Analysis
…
Remember that we are interested in the question whether there is a difference in means of group A and group B. Previously we used a \(t\)-test for this two-group comparison (frequentist or Bayesian). But we can also cast this as a regression problem. Here is how.

Let’s first squeeze the data into a tibble:

eco_sensitivity_data <- tibble(
  group = c(rep("A", length(x_A)), rep("B", length(x_B))),
  measurement = c(x_A, x_B)
) 
eco_sensitivity_data

## # A tibble: 57 x 2
##    group measurement
##    <chr>       <dbl>
##  1 A             104
##  2 A             105
##  3 A             100
##  4 A              91
##  5 A             105
##  6 A             118
##  7 A             164
##  8 A             168
##  9 A             111
## 10 A             107
## # … with 47 more rows
…
