D.2 World Values Survey (wave 6 | 2010-2014) | Introduction to Data Analysis
…
# select variables for Postmaterialism-Index
d_post_raw <- select(d_raw_wvs, 
                       "V60":"V65",    # scale items
                       "V2",           # country
                       "V240",         # gender participant
                       "V238"          # working-class participant
                       ) %>% 
  filter(
    V2 %in% c(276,840,392,710)         #276-Germany,840-United States,392-Japan,710-South Africa
  ) %>% 
  as_tibble() %>% 
  print()

## # A tibble: 10,252 x 9
##      V60   V61   V62   V63   V64   V65    V2  V240  V238
##    <dbl> <dbl> <dbl> <dbl> <dbl> <dbl> <dbl> <dbl> <dbl>
##  1     3     4     4     1     3     1   276     1     3
##  2     3     1     2     3     4     1   276     1     3
##  3     3     4     4     1     1     4   276     1     3
##  4     1     3     4     3     2     3   276     1     4
##  5     1     3     2     3     1    -1   276     1    -2
##  6     1     3     2     3     1     2   276     1     2
##  7     3     1     3     2     3     1   276     1     3
##  8     3     1     4     1     3     1   276     1     1
##  9     3     1     3     1     4     2   276     2     3
## 10     3     1     2     4     2     1   276     2     2
## # … with 10,242 more rows
…
# prepare data set
d_post_clean <- 
 mutate(d_post_clean,
    country = factor(d_post_clean$V2, levels = c(276,840,392,710), labels = c("Germany","United States","Japan","South Africa")),
    gender = factor(d_post_clean$V240, levels = c(1,2), labels = c("female", "male")),
    working_class = factor(d_post_clean$V238, levels = c(1,2,3,4,5), labels = c("Upper class","Upper middle class","Lower middle class","Working class","Lower class"))
  ) %>% 
  print()

## # A tibble: 10,252 x 12
##      V60   V61   V62   V63   V64   V65    V2  V240  V238 country gender
##    <dbl> <dbl> <dbl> <dbl> <dbl> <dbl> <dbl> <dbl> <dbl> <fct>   <fct> 
##  1     3     4     4     1     3     1   276     1     3 Germany female
##  2     3     1     2     3     4     1   276     1     3 Germany female
##  3     3     4     4     1     1     4   276     1     3 Germany female
##  4     1     3     4     3     2     3   276     1     4 Germany female
##  5     1     3     2     3     1    NA   276     1    NA Germany female
##  6     1     3     2     3     1     2   276     1     2 Germany female
##  7     3     1     3     2     3     1   276     1     3 Germany female
##  8     3     1     4     1     3     1   276     1     1 Germany female
##  9     3     1     3     1     4     2   276     2     3 Germany male  
## 10     3     1     2     4     2     1   276     2     2 Germany male  
## # … with 10,242 more rows, and 1 more variable: working_class <fct>
…
      ifelse(V62 %in% c(1,3),0,2)+
      ifelse(V63 %in% c(1,3),0,1)+
      ifelse(V64 %in% c(1,4),0,2)+
      ifelse(V65 %in% c(1,4),0,1), 
    "post_index" =                            # calculate postmaterialism-orientation grading 
      ifelse(post_materialist == 9 , "postmaterialist",
      ifelse(post_materialist %in% c(8,7), "rather postmaterialist",
      ifelse(post_materialist %in% c(6,5), "mixed postmaterialist",
      ifelse(post_materialist %in% c(4,3), "mixed materialist",
      ifelse(post_materialist %in% c(2,1), "rather materialist",
      "materialist"
    )))))) %>%  
  print()

## # A tibble: 10,252 x 14
##      V60   V61   V62   V63   V64   V65    V2  V240  V238 country gender
##    <dbl> <dbl> <dbl> <dbl> <dbl> <dbl> <dbl> <dbl> <dbl> <fct>   <fct> 
##  1     3     4     4     1     3     1   276     1     3 Germany female
##  2     3     1     2     3     4     1   276     1     3 Germany female
##  3     3     4     4     1     1     4   276     1     3 Germany female
##  4     1     3     4     3     2     3   276     1     4 Germany female
##  5     1     3     2     3     1    NA   276     1    NA Germany female
##  6     1     3     2     3     1     2   276     1     2 Germany female
##  7     3     1     3     2     3     1   276     1     3 Germany female
##  8     3     1     4     1     3     1   276     1     1 Germany female
##  9     3     1     3     1     4     2   276     2     3 Germany male  
## 10     3     1     2     4     2     1   276     2     2 Germany male  
## # … with 10,242 more rows, and 3 more variables: working_class <fct>,
## #   post_materialist <dbl>, post_index <chr>
…
# select variables for Schwartz-value-scale
d_value_raw <- select(d_raw_wvs, 
                       "V70":"V79",    # scale items
                       "V2",           # country
                       "V240",         # gender participant
                       "V238"          # working-class participant
                       ) %>% 
  filter(
    V2 %in% c(276,840,392,710)         #276-Germany,840-United States,392-Japan,710-South Africa
  ) %>% 
  as_tibble() %>% 
  print()

## # A tibble: 10,252 x 14
##      V70   V71   V72   V73   V74  V74B   V75   V76   V77   V78   V79    V2
##    <dbl> <dbl> <dbl> <dbl> <dbl> <dbl> <dbl> <dbl> <dbl> <dbl> <dbl> <dbl>
##  1     2     4     6     5     2    -2     3     5     3     1     2   276
##  2     4     4     1     2    -2     3     1     5     3     4     2   276
##  3     3     5     5     4     3    -2     5     6     5     2     2   276
##  4     2     4     5     4     4    -2     4     3     3     3     5   276
##  5     3     4     4     2    -2     3     3     4     5     2     3   276
##  6     2     4     2     3    -2     2     2     5     2     2     3   276
##  7     2     2     1     1    -2     1     1     6     2     1     6   276
##  8     1     3     4     5    -2     4     3     5     5     3     3   276
##  9     1     1     3     1    -2     1     1     6     1     1     1   276
## 10     2     4     3     3    -2     3     4     4     4     3     5   276
## # … with 10,242 more rows, and 2 more variables: V240 <dbl>, V238 <dbl>
…
## # A tibble: 4 x 14
##      V2 V70    V71    V72   V73   V74   V74B  V75   V76   V77   V78   V79  
##   <dbl> <chr>  <chr>  <chr> <chr> <chr> <chr> <chr> <chr> <chr> <chr> <chr>
## 1   276 1.86%  0.929% 0.88… 1.12% 50.0% 50.6% 1.27% 1.08% 0.68… 0.63… 0.83…
## 2   392 10.9%  7.16%  7.98% 7.49% 10.6% 7.16% 10.7% 9.91% 9.17% 7.00% 9.62%
## 3   710 0.821% 1.05%  0.96… 0.87… 1.22% 1.36% 1.36% 1.42% 1.42% 1.47% 1.22%
## 4   840 1.48%  1.57%  1.61% 1.70% 2.15% 100%  1.61% 1.93% 2.11% 1.75% 1.66%
## # … with 2 more variables: gender <chr>, workingclass <chr>

# use V74 or V74B, depending on NA
d_value_clean <- d_value_clean %>% 
  mutate(V74_new = ifelse(is.na(V74)==FALSE,V74,V74B)) %>% 
  print()

## # A tibble: 10,252 x 15
##      V70   V71   V72   V73   V74  V74B   V75   V76   V77   V78   V79    V2
##    <dbl> <dbl> <dbl> <dbl> <dbl> <dbl> <dbl> <dbl> <dbl> <dbl> <dbl> <dbl>
##  1     2     4     6     5     2    NA     3     5     3     1     2   276
##  2     4     4     1     2    NA     3     1     5     3     4     2   276
##  3     3     5     5     4     3    NA     5     6     5     2     2   276
##  4     2     4     5     4     4    NA     4     3     3     3     5   276
##  5     3     4     4     2    NA     3     3     4     5     2     3   276
##  6     2     4     2     3    NA     2     2     5     2     2     3   276
##  7     2     2     1     1    NA     1     1     6     2     1     6   276
##  8     1     3     4     5    NA     4     3     5     5     3     3   276
##  9     1     1     3     1    NA     1     1     6     1     1     1   276
## 10     2     4     3     3    NA     3     4     4     4     3     5   276
## # … with 10,242 more rows, and 3 more variables: V240 <dbl>, V238 <dbl>,
## #   V74_new <dbl>
…
    security = factor(V72, levels = c(1,2,3,4,5,6), labels = c("very much", "like me","somewhat","a little","not like me","not at all")),
    hedonism = factor(V73, levels = c(1,2,3,4,5,6), labels = c("very much", "like me","somewhat","a little","not like me","not at all")),
    benevolence = factor(V74_new, levels = c(1,2,3,4,5,6), labels = c("very much", "like me","somewhat","a little","not like me","not at all")),
    achievement = factor(V75, levels = c(1,2,3,4,5,6), labels = c("very much", "like me","somewhat","a little","not like me","not at all")),
    stimulation = factor(V76, levels = c(1,2,3,4,5,6), labels = c("very much", "like me","somewhat","a little","not like me","not at all")),
    conformity = factor(V77, levels = c(1,2,3,4,5,6), labels = c("very much", "like me","somewhat","a little","not like me","not at all")),
    universalism = factor(V78, levels = c(1,2,3,4,5,6), labels = c("very much", "like me","somewhat","a little","not like me","not at all")),
    tradition = factor(V79, levels = c(1,2,3,4,5,6), labels = c("very much", "like me","somewhat","a little","not like me","not at all")),
    country = factor(V2, levels = c(276,840,392,710), labels = c("Germany","United States","Japan","South Africa")),
    gender = factor(V240, levels = c(1,2), labels = c("female", "male")),
    working_class = factor(V238, levels = c(1,2,3,4,5), labels = c("Upper class","Upper middle class","Lower middle class","Working class","Lower class"))
  ) %>% 
  print()

## # A tibble: 10,252 x 13
##    self_direction power security hedonism benevolence achievement
##    <fct>          <fct> <fct>    <fct>    <fct>       <fct>      
##  1 like me        a li… not at … not lik… like me     somewhat   
##  2 a little       a li… very mu… like me  somewhat    very much  
##  3 somewhat       not … not lik… a little somewhat    not like me
##  4 like me        a li… not lik… a little a little    a little   
##  5 somewhat       a li… a little like me  somewhat    somewhat   
##  6 like me        a li… like me  somewhat like me     like me    
##  7 like me        like… very mu… very mu… very much   very much  
##  8 very much      some… a little not lik… a little    somewhat   
##  9 very much      very… somewhat very mu… very much   very much  
## 10 like me        a li… somewhat somewhat somewhat    a little   
## # … with 10,242 more rows, and 7 more variables: stimulation <fct>,
## #   conformity <fct>, universalism <fct>, tradition <fct>, country <fct>,
## #   gender <fct>, working_class <fct>

# rearrange tibble for plotting
d_value_clean1 <- d_value_clean1 %>% 
  pivot_longer(
    cols = self_direction:tradition,
    names_to = "value",
    values_to = "rating"
  ) %>% 
  print()

## # A tibble: 102,520 x 5
##    country gender working_class      value          rating     
##    <fct>   <fct>  <fct>              <chr>          <fct>      
##  1 Germany female Lower middle class self_direction like me    
##  2 Germany female Lower middle class power          a little   
##  3 Germany female Lower middle class security       not at all 
##  4 Germany female Lower middle class hedonism       not like me
##  5 Germany female Lower middle class benevolence    like me    
##  6 Germany female Lower middle class achievement    somewhat   
##  7 Germany female Lower middle class stimulation    not like me
##  8 Germany female Lower middle class conformity     somewhat   
##  9 Germany female Lower middle class universalism   very much  
## 10 Germany female Lower middle class tradition      like me    
## # … with 102,510 more rows
…
